<?xml version="1.0" encoding="utf-8"?>
<!-- Generator: Adobe Illustrator 19.0.0, SVG Export Plug-In . SVG Version: 6.00 Build 0)  -->
<svg version="1.1" id="Layer_1" xmlns="http://www.w3.org/2000/svg" xmlns:xlink="http://www.w3.org/1999/xlink" x="0px" y="0px"
	 viewBox="80.9 133.9 500 500" style="enable-background:new 80.9 133.9 500 500;" xml:space="preserve">
<style type="text/css">
	.st0{fill:#656565;}
</style>
<g id="Layer_x0020_1">
	<path class="st0" d="M317.9,335.2c15.6,0,29.7,6.3,40,16.6c10.2,10.2,16.6,24.4,16.6,40c0,15.6-6.3,29.7-16.6,40
		c-10.2,10.2-24.4,16.6-40,16.6c-15.6,0-29.7-6.3-40-16.6c-10.2-10.2-16.6-24.4-16.6-40c0-15.6,6.3-29.7,16.6-40
		C288.2,341.5,302.3,335.2,317.9,335.2z M351.8,357.9c-8.6-8.6-20.7-14-33.9-14c-13.2,0-25.2,5.3-33.9,14c-8.6,8.6-14,20.7-14,33.9
		c0,13.2,5.3,25.2,14,33.9c8.6,8.6,20.7,14,33.9,14c13.2,0,25.2-5.3,33.9-14c8.6-8.6,14-20.7,14-33.9
		C365.8,378.5,360.5,366.6,351.8,357.9z"/>
	<path class="st0" d="M346.8,402.6c-2.4,5.5-6.4,10.1-11.3,13.2c-5,3.2-10.9,5-17.1,5c-6.3,0-12.3-1.8-17.3-5
		c-5-3.2-9-7.8-11.3-13.3l0,0c-0.6-1.4-0.6-3,0-4.3c0.6-1.3,1.6-2.4,3-3l0,0c0.4-0.1,0.7-0.2,1.1-0.3l0,0c0.4-0.1,0.7-0.1,1.1-0.1
		c1.1,0,2.2,0.4,3.1,0.9l0,0c0.9,0.6,1.7,1.4,2.1,2.5c1.4,3.5,3.9,6.3,7.1,8.2c3.2,2,7,3.1,11.2,3.1c4,0,7.8-1.2,10.9-3.1
		c3.2-2,5.6-4.8,7.1-8.3l0,0l0,0l0,0c0.6-1.4,1.7-2.4,3.1-3c1.3-0.5,2.9-0.6,4.2,0.1l0,0l0,0l0,0c1.4,0.6,2.4,1.7,3,3.1
		C347.3,399.6,347.3,401.2,346.8,402.6L346.8,402.6L346.8,402.6L346.8,402.6L346.8,402.6z M295.5,372.5c0-4,3.2-7.1,7.1-7.1
		s7.1,3.2,7.1,7.1s-3.2,7.1-7.1,7.1S295.5,376.5,295.5,372.5z M327.9,372.5c0-4,3.2-7.1,7.1-7.1c4,0,7.1,3.2,7.1,7.1
		s-3.2,7.1-7.1,7.1C331.1,379.6,327.9,376.5,327.9,372.5z"/>
</g>
</svg>
