<?xml version="1.0" encoding="utf-8"?>
<!-- Generator: Adobe Illustrator 19.0.0, SVG Export Plug-In . SVG Version: 6.00 Build 0)  -->
<svg version="1.1" id="Layer_1" xmlns="http://www.w3.org/2000/svg" xmlns:xlink="http://www.w3.org/1999/xlink" x="0px" y="0px"
	 viewBox="-261 135 500 500" style="enable-background:new -261 135 500 500;" xml:space="preserve">
<style type="text/css">
	.st0{fill:#656565;}
</style>
<g id="XMLID_1222_">
	<g id="XMLID_1227_">
		<rect id="XMLID_5782_" x="-27.1" y="366.9" class="st0" width="71" height="3.7"/>
	</g>
	<g id="XMLID_1223_">
		<g id="XMLID_1226_">
			<path id="XMLID_5721_" class="st0" d="M-46.5,390c-11.7,0-21.2-9.5-21.2-21.2s9.5-21.2,21.2-21.2s21.2,9.5,21.2,21.2
				S-34.8,390-46.5,390z M-46.5,351.2c-9.6,0-17.5,7.8-17.5,17.5s7.8,17.5,17.5,17.5c9.6,0,17.5-7.8,17.5-17.5
				S-36.9,351.2-46.5,351.2z"/>
		</g>
		<g id="XMLID_1225_">
			<rect id="XMLID_5674_" x="17.4" y="368.7" class="st0" width="3.7" height="15.8"/>
		</g>
		<g id="XMLID_1224_">
			<rect id="XMLID_5635_" x="42" y="366.7" class="st0" width="3.7" height="21.4"/>
		</g>
	</g>
</g>
</svg>
