<?xml version="1.0" encoding="utf-8"?>
<!-- Generator: Adobe Illustrator 19.0.0, SVG Export Plug-In . SVG Version: 6.00 Build 0)  -->
<svg version="1.1" id="Layer_1" xmlns="http://www.w3.org/2000/svg" xmlns:xlink="http://www.w3.org/1999/xlink" x="0px" y="0px"
	 viewBox="80.9 133.9 500 500" style="enable-background:new 80.9 133.9 500 500;" xml:space="preserve">
<style type="text/css">
	.st0{fill:#FFFFFF;}
</style>
<g id="XMLID_1228_">
	<g id="XMLID_1230_">
		<path id="XMLID_5632_" class="st0" d="M318.2,392.8c-12.9,0-23.4-10.5-23.4-23.4c0-12.9,10.5-23.4,23.4-23.4
			c12.9,0,23.4,10.5,23.4,23.4C341.6,382.3,331.1,392.8,318.2,392.8z M318.2,349.7c-10.8,0-19.7,8.8-19.7,19.7s8.8,19.7,19.7,19.7
			c10.8,0,19.7-8.8,19.7-19.7S329,349.7,318.2,349.7z"/>
	</g>
	<g id="XMLID_1229_">
		<path id="XMLID_5631_" class="st0" d="M281.6,438.6c-0.4-10.3,3.3-20.2,10.4-27.7s16.6-11.9,26.9-12.3c21.3-0.7,39.3,16,40,37.3
			l-3.7,0.1c-0.7-19.3-16.9-34.4-36.1-33.7c-9.3,0.3-18,4.3-24.3,11.1s-9.7,15.7-9.4,25L281.6,438.6z"/>
	</g>
</g>
</svg>
