<?xml version="1.0" encoding="utf-8"?>
<!-- Generator: Adobe Illustrator 19.0.0, SVG Export Plug-In . SVG Version: 6.00 Build 0)  -->
<svg version="1.1" id="Layer_1" xmlns="http://www.w3.org/2000/svg" xmlns:xlink="http://www.w3.org/1999/xlink" x="0px" y="0px"
	 viewBox="-389 151 500 500" style="enable-background:new -389 151 500 500;" xml:space="preserve">
<style type="text/css">
	.st0{fill:#FFFFFF;}
</style>
<g id="jfB5KQ.tif">
	<g>
		<g id="XMLID_36_">
			<path id="XMLID_37_" class="st0" d="M-45.6,466c0,1.9,0,3.7,0,5.6c-1.4,5.5-5.3,8.4-10.6,9.8c-2.6,0.6-5.2,0.9-7.9,0.9
				c-48.6,0-97.1,0-145.7,0c-2.8,0-5.6,0-8.4-0.5c-6-1.1-10.6-3.8-12.3-10.1c0-1.9,0-3.7,0-5.6c0.4-1.4,0.8-2.7,1.3-4.1
				c1.2-3.3,3.3-6.2,5.1-9.1c6.1-9.9,12.2-19.8,18.4-29.7c5.2-8.5,10.5-17,15.8-25.4c5.1-8.2,10.1-16.4,15.2-24.6
				c6.9-11.2,13.8-22.3,20.7-33.5c2.1-3.4,3.9-6.9,6.5-10c4.5-5.3,10.8-6.9,16.9-2c1.8,1.4,3,3.2,4.2,5.1c5.7,9.1,11.4,18.3,17,27.5
				c9.7,15.7,19.4,31.4,29.1,47c9.3,15,18.5,29.9,27.7,44.9C-49.8,456.5-46.8,460.8-45.6,466z M-144.9,402.8
				C-144.9,402.8-144.9,402.8-144.9,402.8c0,3,0,5.9,0,8.9c0,4.6-0.1,9.1,0.1,13.7c0.1,2.8,2.1,5,4.7,5.8c2.8,0.8,5.7-0.1,7.4-2.3
				c1.3-1.6,1.5-3.4,1.5-5.3c0-13.7,0-27.4,0-41.2c0-0.8-0.1-1.7-0.3-2.5c-0.5-2.8-3.3-5.2-6.3-5.4c-4-0.2-7.2,2.8-7.2,6.9
				C-144.9,388.6-144.9,395.7-144.9,402.8z M-137.9,446.4c-3.9,0-6.9,2.9-6.9,6.8c0,3.9,2.9,6.9,6.8,7c3.7,0.1,6.9-3.1,6.9-6.9
				C-131.1,449.5-134.1,446.4-137.9,446.4z"/>
		</g>
	</g>
</g>
</svg>
